{
    "compressionlevel": -1,
    "height": 12,
    "infinite": false,
    "layers": [
        {
            "data": [
                14,
                12,
                12,
                12,
                12,
                12,
                12,
                12,
                12,
                12,
                12,
                12,
                12,
                0,
                0,
                0,
                0,
                0,
                13,
                0,
                0,
                0,
                0,
                0,
                0,
                0,
                0,
                0,
                0,
                0,
                0,
                0,
                0,
                0,
                0,
                0,
                0,
                0,
                0,
                0,
                0,
                0,
                0,
                0,
                0,
                0,
                0,
                0,
                0,
                0,
                0,
                0,
                0,
                0,
                0,
                0,
                0,
                0,
                0,
                0,
                0,
                0,
                0,
                0,
                0,
                0,
                0,
                0,
                0,
                0,
                0,
                0,
                0,
                0,
                0,
                0,
                0,
                0,
                0,
                0,
                0,
                0,
                0,
                0,
                0,
                0,
                0,
                0,
                0,
                0,
                0,
                0,
                0,
                0,
                0,
                0,
                0,
                0,
                0,
                0,
                0,
                0,
                0,
                0,
                0,
                0,
                0,
                0,
                0,
                0,
                0,
                0,
                0,
                0,
                0,
                0,
                0,
                0,
                0,
                0,
                0,
                0,
                0,
                0,
                0,
                0,
                0,
                0,
                0,
                0,
                0,
                0,
                0,
                0,
                0,
                0,
                0,
                0,
                0,
                0,
                0,
                0,
                0,
                0,
                0,
                0,
                0,
                0,
                0,
                0,
                0,
                0,
                0,
                0,
                0,
                0,
                0,
                0,
                0,
                0,
                0,
                0,
                0,
                0,
                0,
                0,
                0,
                0,
                0,
                0,
                0,
                0,
                0,
                0,
                0,
                0,
                0,
                0,
                0,
                0,
                0,
                0,
                0,
                0,
                0,
                0,
                0,
                0,
                0,
                0,
                0,
                0,
                0,
                0,
                0,
                0,
                0,
                0,
                0,
                0,
                0,
                0,
                0,
                0,
                0,
                0,
                0,
                0,
                0,
                0,
                0,
                0,
                0,
                0,
                0,
                0
            ],
            "height": 12,
            "id": 1,
            "name": "wall",
            "opacity": 1,
            "properties": [
                {
                    "name": "depth",
                    "type": "int",
                    "value": 1
                }
            ],
            "type": "tilelayer",
            "visible": true,
            "width": 18,
            "x": 0,
            "y": 0
        },
        {
            "draworder": "topdown",
            "id": 4,
            "name": "doors",
            "objects": [
                {
                    "gid": 60,
                    "height": 36,
                    "id": 1,
                    "name": "rear_corridor_bay_icarus",
                    "properties": [
                        {
                            "name": "collides",
                            "type": "bool",
                            "value": false
                        },
                        {
                            "name": "depth",
                            "type": "int",
                            "value": 2
                        }
                    ],
                    "rotation": 0,
                    "type": "door_ground",
                    "visible": true,
                    "width": 64,
                    "x": 2,
                    "y": 44
                },
                {
                    "gid": 65,
                    "height": 73,
                    "id": 2,
                    "name": "rear_corridor_bay_icarus",
                    "properties": [
                        {
                            "name": "collides",
                            "type": "bool",
                            "value": false
                        },
                        {
                            "name": "depth",
                            "type": "int",
                            "value": 3
                        }
                    ],
                    "rotation": 0,
                    "type": "door",
                    "visible": true,
                    "width": 48,
                    "x": -20.5,
                    "y": 9.5
                },
                {
                    "gid": 50,
                    "height": 36,
                    "id": 4,
                    "name": "engine_room_bay_icarus",
                    "properties": [
                        {
                            "name": "collides",
                            "type": "bool",
                            "value": false
                        },
                        {
                            "name": "depth",
                            "type": "int",
                            "value": 2
                        }
                    ],
                    "rotation": 0,
                    "type": "door_ground",
                    "visible": true,
                    "width": 64,
                    "x": 220,
                    "y": 2
                },
                {
                    "gid": 89,
                    "height": 73,
                    "id": 3,
                    "name": "engine_room_bay_icarus",
                    "properties": [
                        {
                            "name": "collides",
                            "type": "bool",
                            "value": false
                        },
                        {
                            "name": "depth",
                            "type": "int",
                            "value": 3
                        }
                    ],
                    "rotation": 0,
                    "type": "door",
                    "visible": true,
                    "width": 48,
                    "x": 185.5,
                    "y": -20.5
                }
            ],
            "opacity": 1,
            "type": "objectgroup",
            "visible": true,
            "x": 0,
            "y": 0
        },
        {
            "data": [
                0,
                0,
                0,
                0,
                0,
                0,
                0,
                0,
                0,
                0,
                0,
                0,
                0,
                0,
                0,
                12,
                12,
                0,
                0,
                0,
                0,
                0,
                0,
                0,
                0,
                0,
                0,
                0,
                0,
                0,
                0,
                0,
                0,
                0,
                0,
                0,
                0,
                0,
                0,
                0,
                0,
                0,
                0,
                0,
                0,
                0,
                0,
                0,
                0,
                0,
                0,
                0,
                0,
                0,
                0,
                0,
                0,
                0,
                0,
                0,
                0,
                0,
                0,
                0,
                0,
                0,
                0,
                0,
                0,
                0,
                0,
                0,
                13,
                0,
                0,
                0,
                0,
                0,
                0,
                0,
                0,
                0,
                0,
                0,
                0,
                0,
                0,
                0,
                0,
                0,
                13,
                0,
                0,
                0,
                0,
                0,
                0,
                0,
                0,
                0,
                0,
                0,
                0,
                0,
                0,
                0,
                0,
                0,
                13,
                0,
                0,
                0,
                0,
                0,
                0,
                0,
                0,
                0,
                0,
                0,
                0,
                0,
                0,
                0,
                0,
                0,
                13,
                0,
                0,
                0,
                0,
                0,
                0,
                0,
                0,
                0,
                0,
                0,
                0,
                0,
                0,
                0,
                0,
                0,
                13,
                0,
                0,
                0,
                0,
                0,
                0,
                0,
                0,
                0,
                0,
                0,
                0,
                0,
                0,
                0,
                0,
                0,
                13,
                0,
                0,
                0,
                0,
                0,
                0,
                0,
                0,
                0,
                0,
                0,
                0,
                0,
                0,
                0,
                0,
                0,
                13,
                0,
                0,
                0,
                0,
                0,
                0,
                0,
                0,
                0,
                0,
                0,
                0,
                0,
                0,
                0,
                0,
                0,
                0,
                0,
                0,
                0,
                0,
                0,
                0,
                0,
                0,
                0,
                0,
                0,
                0,
                0,
                0,
                0,
                0,
                0
            ],
            "height": 12,
            "id": 3,
            "name": "wall",
            "opacity": 1,
            "properties": [
                {
                    "name": "depth",
                    "type": "int",
                    "value": 4
                }
            ],
            "type": "tilelayer",
            "visible": true,
            "width": 18,
            "x": 0,
            "y": 0
        },
        {
            "data": [
                0,
                0,
                0,
                0,
                0,
                0,
                0,
                0,
                0,
                0,
                0,
                0,
                0,
                0,
                0,
                0,
                0,
                0,
                0,
                25,
                27,
                29,
                31,
                25,
                27,
                29,
                31,
                25,
                27,
                29,
                31,
                35,
                34,
                25,
                27,
                0,
                0,
                33,
                33,
                33,
                33,
                33,
                33,
                33,
                33,
                33,
                33,
                33,
                33,
                39,
                42,
                33,
                33,
                0,
                0,
                32,
                32,
                32,
                32,
                32,
                32,
                32,
                32,
                32,
                32,
                32,
                32,
                32,
                32,
                32,
                32,
                0,
                0,
                24,
                26,
                24,
                26,
                26,
                26,
                26,
                26,
                26,
                26,
                26,
                26,
                26,
                26,
                24,
                26,
                0,
                0,
                25,
                27,
                26,
                21,
                21,
                21,
                21,
                21,
                21,
                21,
                21,
                21,
                21,
                21,
                25,
                27,
                0,
                0,
                24,
                26,
                26,
                21,
                21,
                21,
                21,
                21,
                21,
                21,
                21,
                21,
                21,
                21,
                24,
                26,
                0,
                0,
                29,
                31,
                25,
                21,
                21,
                21,
                21,
                21,
                21,
                21,
                21,
                21,
                21,
                21,
                29,
                31,
                0,
                0,
                28,
                30,
                24,
                21,
                21,
                21,
                21,
                21,
                21,
                21,
                21,
                21,
                21,
                21,
                28,
                30,
                0,
                0,
                25,
                27,
                25,
                21,
                21,
                21,
                21,
                21,
                21,
                21,
                21,
                21,
                21,
                21,
                25,
                27,
                0,
                0,
                24,
                26,
                24,
                21,
                21,
                21,
                21,
                21,
                21,
                21,
                21,
                21,
                21,
                21,
                24,
                26,
                0,
                0,
                0,
                0,
                0,
                0,
                0,
                0,
                0,
                0,
                0,
                0,
                0,
                0,
                0,
                0,
                0,
                0,
                0
            ],
            "height": 12,
            "id": 2,
            "name": "ground",
            "opacity": 1,
            "properties": [
                {
                    "name": "depth",
                    "type": "int",
                    "value": 5
                },
                {
                    "name": "walkingDepth",
                    "type": "int",
                    "value": 20
                }
            ],
            "type": "tilelayer",
            "visible": true,
            "width": 18,
            "x": 0,
            "y": 0
        },
        {
            "draworder": "index",
            "id": 5,
            "name": "objects",
            "objects": [
                {
                    "gid": 55,
                    "height": 36,
                    "id": 6,
                    "name": "rear_bravo_turret_bay_icarus",
                    "properties": [
                        {
                            "name": "collides",
                            "type": "bool",
                            "value": false
                        },
                        {
                            "name": "depth",
                            "type": "int",
                            "value": 10
                        }
                    ],
                    "rotation": 0,
                    "type": "door_ground",
                    "visible": true,
                    "width": 64,
                    "x": 287,
                    "y": 79
                },
                {
                    "gid": 265,
                    "height": 17,
                    "id": 7,
                    "name": "camera_equipment",
                    "properties": [
                        {
                            "name": "animationYoyo",
                            "type": "bool",
                            "value": true
                        },
                        {
                            "name": "collides",
                            "type": "bool",
                            "value": false
                        },
                        {
                            "name": "depth",
                            "type": "int",
                            "value": 5
                        },
                        {
                            "name": "isoSizeX",
                            "type": "int",
                            "value": 16
                        },
                        {
                            "name": "isoSizeY",
                            "type": "int",
                            "value": 16
                        }
                    ],
                    "rotation": 0,
                    "type": "interact",
                    "visible": true,
                    "width": 25,
                    "x": 50.25,
                    "y": -21.25
                },
                {
                    "gid": 259,
                    "height": 35,
                    "id": 14,
                    "name": "magnetic_return",
                    "properties": [
                        {
                            "name": "collides",
                            "type": "bool",
                            "value": false
                        },
                        {
                            "name": "depth",
                            "type": "int",
                            "value": 1
                        }
                    ],
                    "rotation": 0,
                    "type": "decoration",
                    "visible": true,
                    "width": 51,
                    "x": 77.25,
                    "y": 197.75
                },
                {
                    "gid": 259,
                    "height": 35,
                    "id": 15,
                    "name": "magnetic_return",
                    "properties": [
                        {
                            "name": "collides",
                            "type": "bool",
                            "value": false
                        },
                        {
                            "name": "depth",
                            "type": "int",
                            "value": 1
                        }
                    ],
                    "rotation": 0,
                    "type": "decoration",
                    "visible": true,
                    "width": 51,
                    "x": 236.75,
                    "y": 196.25
                },
                {
                    "gid": 281,
                    "height": 40,
                    "id": 9,
                    "name": "shelf",
                    "properties": [
                        {
                            "name": "collides",
                            "type": "bool",
                            "value": true
                        },
                        {
                            "name": "isoSizeX",
                            "type": "int",
                            "value": 16
                        },
                        {
                            "name": "isoSizeY",
                            "type": "int",
                            "value": 16
                        }
                    ],
                    "rotation": 0,
                    "type": "shelf",
                    "visible": true,
                    "width": 33,
                    "x": 8.25,
                    "y": 71.75
                },
                {
                    "gid": 285,
                    "height": 15,
                    "id": 10,
                    "name": "wall_box",
                    "properties": [
                        {
                            "name": "collides",
                            "type": "bool",
                            "value": false
                        },
                        {
                            "name": "depth",
                            "type": "int",
                            "value": 5
                        },
                        {
                            "name": "isoSizeX",
                            "type": "int",
                            "value": 10
                        },
                        {
                            "name": "isoSizeY",
                            "type": "int",
                            "value": 4
                        }
                    ],
                    "rotation": 0,
                    "type": "decoration",
                    "visible": true,
                    "width": 14,
                    "x": -31,
                    "y": 74
                },
                {
                    "gid": 257,
                    "height": 206,
                    "id": 13,
                    "name": "takeoff_platform",
                    "properties": [
                        {
                            "name": "collides",
                            "type": "bool",
                            "value": false
                        },
                        {
                            "name": "depth",
                            "type": "int",
                            "value": 6
                        },
                        {
                            "name": "isoSizeX",
                            "type": "int",
                            "value": 192
                        },
                        {
                            "name": "isoSizeY",
                            "type": "int",
                            "value": 128
                        }
                    ],
                    "rotation": 0,
                    "type": "decoration",
                    "visible": true,
                    "width": 328,
                    "x": 133,
                    "y": 117
                },
                {
                    "gid": 261,
                    "height": 140,
                    "id": 19,
                    "name": "icarus",
                    "properties": [
                        {
                            "name": "collides",
                            "type": "bool",
                            "value": true
                        },
                        {
                            "name": "isoSizeX",
                            "type": "int",
                            "value": 128
                        },
                        {
                            "name": "isoSizeY",
                            "type": "int",
                            "value": 128
                        }
                    ],
                    "rotation": 0,
                    "type": "interact",
                    "visible": true,
                    "width": 171,
                    "x": 107.75,
                    "y": 108.25
                },
                {
                    "gid": 260,
                    "height": 55,
                    "id": 8,
                    "name": "wall_icarus",
                    "properties": [
                        {
                            "name": "collides",
                            "type": "bool",
                            "value": false
                        },
                        {
                            "name": "depth",
                            "type": "int",
                            "value": 2
                        }
                    ],
                    "rotation": 0,
                    "type": "decoration",
                    "visible": true,
                    "width": 83,
                    "x": 118.2,
                    "y": -17.32
                },
                {
                    "gid": 287,
                    "height": 69,
                    "id": 11,
                    "name": "yellow_lamp",
                    "properties": [
                        {
                            "name": "collides",
                            "type": "bool",
                            "value": true
                        },
                        {
                            "name": "isoShiftHitboxX",
                            "type": "int",
                            "value": -16
                        },
                        {
                            "name": "isoShiftHitboxY",
                            "type": "int",
                            "value": -16
                        },
                        {
                            "name": "isoSizeX",
                            "type": "int",
                            "value": 4
                        },
                        {
                            "name": "isoSizeY",
                            "type": "int",
                            "value": 4
                        }
                    ],
                    "rotation": 0,
                    "type": "decoration",
                    "visible": true,
                    "width": 54,
                    "x": -2.5,
                    "y": 109.5
                },
                {
                    "gid": 287,
                    "height": 69,
                    "id": 12,
                    "name": "yellow_lamp",
                    "properties": [
                        {
                            "name": "collides",
                            "type": "bool",
                            "value": true
                        },
                        {
                            "name": "isoShiftHitboxX",
                            "type": "int",
                            "value": -16
                        },
                        {
                            "name": "isoShiftHitboxY",
                            "type": "int",
                            "value": -16
                        },
                        {
                            "name": "isoSizeX",
                            "type": "int",
                            "value": 4
                        },
                        {
                            "name": "isoSizeY",
                            "type": "int",
                            "value": 4
                        }
                    ],
                    "rotation": 0,
                    "type": "decoration",
                    "visible": true,
                    "width": 54,
                    "x": 238.5,
                    "y": 78.5
                }
            ],
            "opacity": 1,
            "type": "objectgroup",
            "visible": true,
            "x": 0,
            "y": 0
        }
    ],
    "nextlayerid": 7,
    "nextobjectid": 20,
    "orientation": "isometric",
    "renderorder": "right-down",
    "tiledversion": "1.7.2",
    "tileheight": 16,
    "tilesets": [
        {
            "columns": 14,
            "firstgid": 1,
            "grid": {
                "height": 72,
                "orientation": "isometric",
                "width": 32
            },
            "image": "tilemaps/wall_tileset.png",
            "imageheight": 72,
            "imagewidth": 448,
            "margin": 0,
            "name": "wall_tileset",
            "objectalignment": "center",
            "spacing": 0,
            "tilecount": 14,
            "tileheight": 72,
            "tilewidth": 32
        },
        {
            "columns": 30,
            "firstgid": 15,
            "grid": {
                "height": 72,
                "orientation": "isometric",
                "width": 32
            },
            "image": "tilemaps/ground_tileset.png",
            "imageheight": 72,
            "imagewidth": 960,
            "margin": 0,
            "name": "ground_tileset",
            "objectalignment": "center",
            "spacing": 0,
            "tilecount": 30,
            "tileheight": 72,
            "tilewidth": 32
        },
        {
            "columns": 5,
            "firstgid": 45,
            "grid": {
                "height": 36,
                "orientation": "isometric",
                "width": 64
            },
            "image": "tilemaps/door_ground_tileset.png",
            "imageheight": 144,
            "imagewidth": 320,
            "margin": 0,
            "name": "door_ground_tileset",
            "objectalignment": "center",
            "spacing": 0,
            "tilecount": 20,
            "tileheight": 36,
            "tiles": [
                {
                    "animation": [
                        {
                            "duration": 100,
                            "tileid": 0
                        },
                        {
                            "duration": 100,
                            "tileid": 1
                        },
                        {
                            "duration": 100,
                            "tileid": 2
                        },
                        {
                            "duration": 100,
                            "tileid": 3
                        },
                        {
                            "duration": 100,
                            "tileid": 4
                        }
                    ],
                    "id": 0
                },
                {
                    "animation": [
                        {
                            "duration": 100,
                            "tileid": 5
                        },
                        {
                            "duration": 100,
                            "tileid": 6
                        },
                        {
                            "duration": 100,
                            "tileid": 7
                        },
                        {
                            "duration": 100,
                            "tileid": 8
                        },
                        {
                            "duration": 100,
                            "tileid": 9
                        }
                    ],
                    "id": 5
                },
                {
                    "animation": [
                        {
                            "duration": 100,
                            "tileid": 10
                        },
                        {
                            "duration": 100,
                            "tileid": 11
                        },
                        {
                            "duration": 100,
                            "tileid": 12
                        },
                        {
                            "duration": 100,
                            "tileid": 13
                        },
                        {
                            "duration": 100,
                            "tileid": 14
                        }
                    ],
                    "id": 10
                },
                {
                    "animation": [
                        {
                            "duration": 100,
                            "tileid": 15
                        },
                        {
                            "duration": 100,
                            "tileid": 16
                        },
                        {
                            "duration": 100,
                            "tileid": 17
                        },
                        {
                            "duration": 100,
                            "tileid": 18
                        },
                        {
                            "duration": 100,
                            "tileid": 19
                        }
                    ],
                    "id": 15
                }
            ],
            "tilewidth": 64
        },
        {
            "columns": 24,
            "firstgid": 65,
            "grid": {
                "height": 73,
                "orientation": "isometric",
                "width": 48
            },
            "image": "tilemaps/door_object.png",
            "imageheight": 584,
            "imagewidth": 1152,
            "margin": 0,
            "name": "door_object",
            "objectalignment": "center",
            "spacing": 0,
            "tilecount": 192,
            "tileheight": 73,
            "tiles": [
                {
                    "animation": [
                        {
                            "duration": 100,
                            "tileid": 0
                        },
                        {
                            "duration": 100,
                            "tileid": 1
                        },
                        {
                            "duration": 100,
                            "tileid": 2
                        },
                        {
                            "duration": 100,
                            "tileid": 3
                        },
                        {
                            "duration": 100,
                            "tileid": 4
                        },
                        {
                            "duration": 100,
                            "tileid": 5
                        },
                        {
                            "duration": 100,
                            "tileid": 6
                        },
                        {
                            "duration": 100,
                            "tileid": 7
                        },
                        {
                            "duration": 100,
                            "tileid": 8
                        },
                        {
                            "duration": 100,
                            "tileid": 9
                        },
                        {
                            "duration": 100,
                            "tileid": 10
                        },
                        {
                            "duration": 100,
                            "tileid": 11
                        },
                        {
                            "duration": 100,
                            "tileid": 12
                        },
                        {
                            "duration": 100,
                            "tileid": 13
                        },
                        {
                            "duration": 100,
                            "tileid": 14
                        },
                        {
                            "duration": 100,
                            "tileid": 15
                        },
                        {
                            "duration": 100,
                            "tileid": 16
                        },
                        {
                            "duration": 100,
                            "tileid": 17
                        },
                        {
                            "duration": 100,
                            "tileid": 18
                        },
                        {
                            "duration": 100,
                            "tileid": 19
                        },
                        {
                            "duration": 100,
                            "tileid": 20
                        },
                        {
                            "duration": 100,
                            "tileid": 21
                        },
                        {
                            "duration": 100,
                            "tileid": 22
                        },
                        {
                            "duration": 100,
                            "tileid": 23
                        }
                    ],
                    "id": 0
                },
                {
                    "animation": [
                        {
                            "duration": 100,
                            "tileid": 24
                        },
                        {
                            "duration": 100,
                            "tileid": 25
                        },
                        {
                            "duration": 100,
                            "tileid": 26
                        },
                        {
                            "duration": 100,
                            "tileid": 27
                        },
                        {
                            "duration": 100,
                            "tileid": 28
                        },
                        {
                            "duration": 100,
                            "tileid": 29
                        },
                        {
                            "duration": 100,
                            "tileid": 30
                        },
                        {
                            "duration": 100,
                            "tileid": 31
                        },
                        {
                            "duration": 100,
                            "tileid": 32
                        },
                        {
                            "duration": 100,
                            "tileid": 33
                        },
                        {
                            "duration": 100,
                            "tileid": 34
                        },
                        {
                            "duration": 100,
                            "tileid": 35
                        },
                        {
                            "duration": 100,
                            "tileid": 36
                        },
                        {
                            "duration": 100,
                            "tileid": 37
                        },
                        {
                            "duration": 100,
                            "tileid": 38
                        },
                        {
                            "duration": 100,
                            "tileid": 39
                        },
                        {
                            "duration": 100,
                            "tileid": 40
                        },
                        {
                            "duration": 100,
                            "tileid": 41
                        },
                        {
                            "duration": 100,
                            "tileid": 42
                        },
                        {
                            "duration": 100,
                            "tileid": 43
                        },
                        {
                            "duration": 100,
                            "tileid": 44
                        },
                        {
                            "duration": 100,
                            "tileid": 45
                        },
                        {
                            "duration": 100,
                            "tileid": 46
                        },
                        {
                            "duration": 100,
                            "tileid": 47
                        }
                    ],
                    "id": 24
                },
                {
                    "animation": [
                        {
                            "duration": 100,
                            "tileid": 48
                        },
                        {
                            "duration": 100,
                            "tileid": 49
                        },
                        {
                            "duration": 100,
                            "tileid": 50
                        },
                        {
                            "duration": 100,
                            "tileid": 51
                        },
                        {
                            "duration": 100,
                            "tileid": 52
                        },
                        {
                            "duration": 100,
                            "tileid": 53
                        },
                        {
                            "duration": 100,
                            "tileid": 54
                        },
                        {
                            "duration": 100,
                            "tileid": 55
                        },
                        {
                            "duration": 100,
                            "tileid": 56
                        },
                        {
                            "duration": 100,
                            "tileid": 57
                        },
                        {
                            "duration": 100,
                            "tileid": 58
                        },
                        {
                            "duration": 100,
                            "tileid": 59
                        },
                        {
                            "duration": 100,
                            "tileid": 60
                        },
                        {
                            "duration": 100,
                            "tileid": 61
                        },
                        {
                            "duration": 100,
                            "tileid": 62
                        },
                        {
                            "duration": 100,
                            "tileid": 63
                        },
                        {
                            "duration": 100,
                            "tileid": 64
                        },
                        {
                            "duration": 100,
                            "tileid": 65
                        },
                        {
                            "duration": 100,
                            "tileid": 66
                        },
                        {
                            "duration": 100,
                            "tileid": 67
                        },
                        {
                            "duration": 100,
                            "tileid": 68
                        },
                        {
                            "duration": 100,
                            "tileid": 69
                        },
                        {
                            "duration": 100,
                            "tileid": 70
                        },
                        {
                            "duration": 100,
                            "tileid": 71
                        }
                    ],
                    "id": 48
                },
                {
                    "animation": [
                        {
                            "duration": 100,
                            "tileid": 72
                        },
                        {
                            "duration": 100,
                            "tileid": 73
                        },
                        {
                            "duration": 100,
                            "tileid": 74
                        },
                        {
                            "duration": 100,
                            "tileid": 75
                        },
                        {
                            "duration": 100,
                            "tileid": 76
                        },
                        {
                            "duration": 100,
                            "tileid": 77
                        },
                        {
                            "duration": 100,
                            "tileid": 78
                        },
                        {
                            "duration": 100,
                            "tileid": 79
                        },
                        {
                            "duration": 100,
                            "tileid": 80
                        },
                        {
                            "duration": 100,
                            "tileid": 81
                        },
                        {
                            "duration": 100,
                            "tileid": 82
                        },
                        {
                            "duration": 100,
                            "tileid": 83
                        },
                        {
                            "duration": 100,
                            "tileid": 84
                        },
                        {
                            "duration": 100,
                            "tileid": 85
                        },
                        {
                            "duration": 100,
                            "tileid": 86
                        },
                        {
                            "duration": 100,
                            "tileid": 87
                        },
                        {
                            "duration": 100,
                            "tileid": 88
                        },
                        {
                            "duration": 100,
                            "tileid": 89
                        },
                        {
                            "duration": 100,
                            "tileid": 90
                        },
                        {
                            "duration": 100,
                            "tileid": 91
                        },
                        {
                            "duration": 100,
                            "tileid": 92
                        },
                        {
                            "duration": 100,
                            "tileid": 93
                        },
                        {
                            "duration": 100,
                            "tileid": 94
                        },
                        {
                            "duration": 100,
                            "tileid": 95
                        }
                    ],
                    "id": 72
                },
                {
                    "animation": [
                        {
                            "duration": 100,
                            "tileid": 96
                        },
                        {
                            "duration": 100,
                            "tileid": 97
                        },
                        {
                            "duration": 100,
                            "tileid": 98
                        },
                        {
                            "duration": 100,
                            "tileid": 99
                        },
                        {
                            "duration": 100,
                            "tileid": 100
                        },
                        {
                            "duration": 100,
                            "tileid": 101
                        },
                        {
                            "duration": 100,
                            "tileid": 102
                        },
                        {
                            "duration": 100,
                            "tileid": 103
                        },
                        {
                            "duration": 100,
                            "tileid": 104
                        },
                        {
                            "duration": 100,
                            "tileid": 105
                        },
                        {
                            "duration": 100,
                            "tileid": 106
                        },
                        {
                            "duration": 100,
                            "tileid": 107
                        },
                        {
                            "duration": 100,
                            "tileid": 108
                        },
                        {
                            "duration": 100,
                            "tileid": 109
                        },
                        {
                            "duration": 100,
                            "tileid": 110
                        },
                        {
                            "duration": 100,
                            "tileid": 111
                        },
                        {
                            "duration": 100,
                            "tileid": 112
                        },
                        {
                            "duration": 100,
                            "tileid": 113
                        },
                        {
                            "duration": 100,
                            "tileid": 114
                        },
                        {
                            "duration": 100,
                            "tileid": 115
                        },
                        {
                            "duration": 100,
                            "tileid": 116
                        },
                        {
                            "duration": 100,
                            "tileid": 117
                        },
                        {
                            "duration": 100,
                            "tileid": 118
                        },
                        {
                            "duration": 100,
                            "tileid": 119
                        }
                    ],
                    "id": 96
                },
                {
                    "animation": [
                        {
                            "duration": 100,
                            "tileid": 120
                        },
                        {
                            "duration": 100,
                            "tileid": 121
                        },
                        {
                            "duration": 100,
                            "tileid": 122
                        },
                        {
                            "duration": 100,
                            "tileid": 123
                        },
                        {
                            "duration": 100,
                            "tileid": 124
                        },
                        {
                            "duration": 100,
                            "tileid": 125
                        },
                        {
                            "duration": 100,
                            "tileid": 126
                        },
                        {
                            "duration": 100,
                            "tileid": 127
                        },
                        {
                            "duration": 100,
                            "tileid": 128
                        },
                        {
                            "duration": 100,
                            "tileid": 129
                        },
                        {
                            "duration": 100,
                            "tileid": 130
                        },
                        {
                            "duration": 100,
                            "tileid": 131
                        },
                        {
                            "duration": 100,
                            "tileid": 132
                        },
                        {
                            "duration": 100,
                            "tileid": 133
                        },
                        {
                            "duration": 100,
                            "tileid": 134
                        },
                        {
                            "duration": 100,
                            "tileid": 135
                        },
                        {
                            "duration": 100,
                            "tileid": 136
                        },
                        {
                            "duration": 100,
                            "tileid": 137
                        },
                        {
                            "duration": 100,
                            "tileid": 138
                        },
                        {
                            "duration": 100,
                            "tileid": 139
                        },
                        {
                            "duration": 100,
                            "tileid": 140
                        },
                        {
                            "duration": 100,
                            "tileid": 141
                        },
                        {
                            "duration": 100,
                            "tileid": 142
                        },
                        {
                            "duration": 100,
                            "tileid": 143
                        }
                    ],
                    "id": 120
                },
                {
                    "animation": [
                        {
                            "duration": 100,
                            "tileid": 144
                        },
                        {
                            "duration": 100,
                            "tileid": 145
                        },
                        {
                            "duration": 100,
                            "tileid": 146
                        },
                        {
                            "duration": 100,
                            "tileid": 147
                        },
                        {
                            "duration": 100,
                            "tileid": 148
                        },
                        {
                            "duration": 100,
                            "tileid": 149
                        },
                        {
                            "duration": 100,
                            "tileid": 150
                        },
                        {
                            "duration": 100,
                            "tileid": 151
                        },
                        {
                            "duration": 100,
                            "tileid": 152
                        },
                        {
                            "duration": 100,
                            "tileid": 153
                        },
                        {
                            "duration": 100,
                            "tileid": 154
                        },
                        {
                            "duration": 100,
                            "tileid": 155
                        },
                        {
                            "duration": 100,
                            "tileid": 156
                        },
                        {
                            "duration": 100,
                            "tileid": 157
                        },
                        {
                            "duration": 100,
                            "tileid": 158
                        },
                        {
                            "duration": 100,
                            "tileid": 159
                        },
                        {
                            "duration": 100,
                            "tileid": 160
                        },
                        {
                            "duration": 100,
                            "tileid": 161
                        },
                        {
                            "duration": 100,
                            "tileid": 162
                        },
                        {
                            "duration": 100,
                            "tileid": 163
                        },
                        {
                            "duration": 100,
                            "tileid": 164
                        },
                        {
                            "duration": 100,
                            "tileid": 165
                        },
                        {
                            "duration": 100,
                            "tileid": 166
                        },
                        {
                            "duration": 100,
                            "tileid": 167
                        }
                    ],
                    "id": 144
                },
                {
                    "animation": [
                        {
                            "duration": 100,
                            "tileid": 168
                        },
                        {
                            "duration": 100,
                            "tileid": 169
                        },
                        {
                            "duration": 100,
                            "tileid": 170
                        },
                        {
                            "duration": 100,
                            "tileid": 171
                        },
                        {
                            "duration": 100,
                            "tileid": 172
                        },
                        {
                            "duration": 100,
                            "tileid": 173
                        },
                        {
                            "duration": 100,
                            "tileid": 174
                        },
                        {
                            "duration": 100,
                            "tileid": 175
                        },
                        {
                            "duration": 100,
                            "tileid": 176
                        },
                        {
                            "duration": 100,
                            "tileid": 177
                        },
                        {
                            "duration": 100,
                            "tileid": 178
                        },
                        {
                            "duration": 100,
                            "tileid": 179
                        },
                        {
                            "duration": 100,
                            "tileid": 180
                        },
                        {
                            "duration": 100,
                            "tileid": 181
                        },
                        {
                            "duration": 100,
                            "tileid": 182
                        },
                        {
                            "duration": 100,
                            "tileid": 183
                        },
                        {
                            "duration": 100,
                            "tileid": 184
                        },
                        {
                            "duration": 100,
                            "tileid": 185
                        },
                        {
                            "duration": 100,
                            "tileid": 186
                        },
                        {
                            "duration": 100,
                            "tileid": 187
                        },
                        {
                            "duration": 100,
                            "tileid": 188
                        },
                        {
                            "duration": 100,
                            "tileid": 189
                        },
                        {
                            "duration": 100,
                            "tileid": 190
                        },
                        {
                            "duration": 100,
                            "tileid": 191
                        }
                    ],
                    "id": 168
                }
            ],
            "tilewidth": 48
        },
        {
            "columns": 2,
            "firstgid": 257,
            "image": "tilemaps/takeoff_platform.png",
            "imageheight": 206,
            "imagewidth": 656,
            "margin": 0,
            "name": "takeoff_platform",
            "objectalignment": "center",
            "spacing": 0,
            "tilecount": 2,
            "tileheight": 206,
            "tiles": [
                {
                    "animation": [
                        {
                            "duration": 1000,
                            "tileid": 0
                        },
                        {
                            "duration": 1000,
                            "tileid": 1
                        }
                    ],
                    "id": 0
                }
            ],
            "tilewidth": 328
        },
        {
            "columns": 1,
            "firstgid": 259,
            "image": "tilemaps/magnetic_return.png",
            "imageheight": 35,
            "imagewidth": 51,
            "margin": 0,
            "name": "magnetic_return",
            "objectalignment": "center",
            "spacing": 0,
            "tilecount": 1,
            "tileheight": 35,
            "tilewidth": 51
        },
        {
            "columns": 1,
            "firstgid": 260,
            "image": "tilemaps/icarus_wall.png",
            "imageheight": 55,
            "imagewidth": 83,
            "margin": 0,
            "name": "icarus_wall",
            "objectalignment": "center",
            "spacing": 0,
            "tilecount": 1,
            "tileheight": 55,
            "tilewidth": 83
        },
        {
            "columns": 1,
            "firstgid": 261,
            "image": "tilemaps/icarus_access.png",
            "imageheight": 560,
            "imagewidth": 171,
            "margin": 0,
            "name": "icarus_access",
            "objectalignment": "center",
            "spacing": 0,
            "tilecount": 4,
            "tileheight": 140,
            "tilewidth": 171
        },
        {
            "columns": 14,
            "firstgid": 265,
            "image": "tilemaps/camera_object.png",
            "imageheight": 17,
            "imagewidth": 350,
            "margin": 0,
            "name": "camera_object",
            "objectalignment": "center",
            "spacing": 0,
            "tilecount": 14,
            "tileheight": 17,
            "tiles": [
                {
                    "animation": [
                        {
                            "duration": 300,
                            "tileid": 0
                        },
                        {
                            "duration": 300,
                            "tileid": 1
                        },
                        {
                            "duration": 300,
                            "tileid": 2
                        },
                        {
                            "duration": 300,
                            "tileid": 3
                        },
                        {
                            "duration": 300,
                            "tileid": 4
                        },
                        {
                            "duration": 300,
                            "tileid": 5
                        },
                        {
                            "duration": 300,
                            "tileid": 6
                        },
                        {
                            "duration": 300,
                            "tileid": 7
                        },
                        {
                            "duration": 300,
                            "tileid": 8
                        },
                        {
                            "duration": 300,
                            "tileid": 9
                        },
                        {
                            "duration": 300,
                            "tileid": 10
                        },
                        {
                            "duration": 300,
                            "tileid": 11
                        },
                        {
                            "duration": 300,
                            "tileid": 12
                        },
                        {
                            "duration": 300,
                            "tileid": 13
                        },
                        {
                            "duration": 300,
                            "tileid": 12
                        },
                        {
                            "duration": 300,
                            "tileid": 11
                        },
                        {
                            "duration": 300,
                            "tileid": 10
                        },
                        {
                            "duration": 300,
                            "tileid": 9
                        },
                        {
                            "duration": 300,
                            "tileid": 8
                        },
                        {
                            "duration": 300,
                            "tileid": 7
                        },
                        {
                            "duration": 300,
                            "tileid": 6
                        },
                        {
                            "duration": 300,
                            "tileid": 5
                        },
                        {
                            "duration": 300,
                            "tileid": 4
                        },
                        {
                            "duration": 300,
                            "tileid": 3
                        },
                        {
                            "duration": 300,
                            "tileid": 2
                        },
                        {
                            "duration": 300,
                            "tileid": 1
                        },
                        {
                            "duration": 300,
                            "tileid": 0
                        }
                    ],
                    "id": 0
                }
            ],
            "tilewidth": 25
        },
        {
            "columns": 4,
            "firstgid": 279,
            "image": "tilemaps/shelf_object.png",
            "imageheight": 40,
            "imagewidth": 132,
            "margin": 0,
            "name": "shelf_object",
            "objectalignment": "center",
            "spacing": 0,
            "tilecount": 4,
            "tileheight": 40,
            "tilewidth": 33
        },
        {
            "columns": 4,
            "firstgid": 283,
            "image": "tilemaps/wall_box.png",
            "imageheight": 15,
            "imagewidth": 56,
            "margin": 0,
            "name": "wall_box",
            "objectalignment": "center",
            "spacing": 0,
            "tilecount": 4,
            "tileheight": 15,
            "tiles": [
                {
                    "animation": [
                        {
                            "duration": 1500,
                            "tileid": 0
                        },
                        {
                            "duration": 1500,
                            "tileid": 1
                        }
                    ],
                    "id": 0
                },
                {
                    "animation": [
                        {
                            "duration": 1500,
                            "tileid": 2
                        },
                        {
                            "duration": 1500,
                            "tileid": 3
                        }
                    ],
                    "id": 2
                }
            ],
            "tilewidth": 14
        },
        {
            "columns": 6,
            "firstgid": 287,
            "image": "tilemaps/yellow_lamp.png",
            "imageheight": 69,
            "imagewidth": 324,
            "margin": 0,
            "name": "yellow_lamp",
            "objectalignment": "center",
            "spacing": 0,
            "tilecount": 6,
            "tileheight": 69,
            "tiles": [
                {
                    "animation": [
                        {
                            "duration": 100,
                            "tileid": 0
                        },
                        {
                            "duration": 100,
                            "tileid": 1
                        },
                        {
                            "duration": 100,
                            "tileid": 2
                        },
                        {
                            "duration": 100,
                            "tileid": 3
                        },
                        {
                            "duration": 100,
                            "tileid": 4
                        },
                        {
                            "duration": 100,
                            "tileid": 5
                        }
                    ],
                    "id": 0
                }
            ],
            "tilewidth": 54
        }
    ],
    "tilewidth": 32,
    "type": "map",
    "version": "1.6",
    "width": 18
}